Functional programming in R
…
mutate(across())

mutate(
  <DATA>, 
  across(c(<VARIABLES>), list(<NAMES> = <FUNCTIONS>)) 
)

mutate(across())

mutate(
  diamonds, 
  across(c("carat", "depth"), mean) 
)

# A tibble: 53,940 × 10
   carat cut     color clarity depth table price     x     y
   <dbl> <ord>   <ord> <ord>   <dbl> <dbl> <int> <dbl> <dbl>
 1 0.798 Ideal   E     SI2      61.7    55   326  3.95  3.98
 2 0.798 Premium E     SI1      61.7    61   326  3.89  3.84
 3 0.798 Good    E     VS1      61.7    65   327  4.05  4.07
 4 0.798 Premium I     VS2      61.7    58   334  4.2   4.23
 5 0.798 Good    J     SI2      61.7    58   335  4.34  4.35
 6 0.798 Very G… J     VVS2     61.7    57   336  3.94  3.96
 7 0.798 Very G… I     VVS1     61.7    57   336  3.95  3.98
 8 0.798 Very G… H     SI1      61.7    55   337  4.07  4.11
 9 0.798 Fair    E     VS2      61.7    61   337  3.87  3.78
10 0.798 Very G… H     VS1      61.7    61   338  4     4.05
# ℹ 53,930 more rows
# ℹ 1 more variable: z <dbl>

mutate(across())

mutate(
  diamonds, 
  across(c("carat", "depth"), list(mean = mean, sd = sd))
)

# A tibble: 53,940 × 14
   carat cut     color clarity depth table price     x     y
   <dbl> <ord>   <ord> <ord>   <dbl> <dbl> <int> <dbl> <dbl>
 1  0.23 Ideal   E     SI2      61.5    55   326  3.95  3.98
 2  0.21 Premium E     SI1      59.8    61   326  3.89  3.84
 3  0.23 Good    E     VS1      56.9    65   327  4.05  4.07
 4  0.29 Premium I     VS2      62.4    58   334  4.2   4.23
 5  0.31 Good    J     SI2      63.3    58   335  4.34  4.35
 6  0.24 Very G… J     VVS2     62.8    57   336  3.94  3.96
 7  0.24 Very G… I     VVS1     62.3    57   336  3.95  3.98
 8  0.26 Very G… H     SI1      61.9    55   337  4.07  4.11
 9  0.22 Fair    E     VS2      65.1    61   337  3.87  3.78
10  0.23 Very G… H     VS1      59.4    61   338  4     4.05
# ℹ 53,930 more rows
# ℹ 5 more variables: z <dbl>, carat_mean <dbl>,
#   carat_sd <dbl>, depth_mean <dbl>, depth_sd <dbl>

mutate(across(where()))

mutate(
  gapminder, 
  across(where(is.numeric), median) 
)

# A tibble: 1,704 × 6
   country     continent  year lifeExp      pop gdpPercap
   <fct>       <fct>     <dbl>   <dbl>    <dbl>     <dbl>
 1 Afghanistan Asia      1980.    60.7 7023596.     3532.
 2 Afghanistan Asia      1980.    60.7 7023596.     3532.
 3 Afghanistan Asia      1980.    60.7 7023596.     3532.
 4 Afghanistan Asia      1980.    60.7 7023596.     3532.
 5 Afghanistan Asia      1980.    60.7 7023596.     3532.
 6 Afghanistan Asia      1980.    60.7 7023596.     3532.
 7 Afghanistan Asia      1980.    60.7 7023596.     3532.
 8 Afghanistan Asia      1980.    60.7 7023596.     3532.
 9 Afghanistan Asia      1980.    60.7 7023596.     3532.
10 Afghanistan Asia      1980.    60.7 7023596.     3532.
# ℹ 1,694 more rows
…
