Add data and files to R packages
…
---

# `use_template()` and `inst/templates`

--

```
## # A tibble: 56 x 2
##    path                type 
##    <chr>               <fct>
##  1 CODE_OF_CONDUCT.md  file 
##  2 Jenkinsfile         file 
##  3 Makefile            file 
##  4 NAMESPACE           file 
##  5 NEWS.md             file 
##  6 addins.dcf          file 
##  7 appveyor.yml        file 
##  8 article.Rmd         file 
##  9 azure-pipelines.yml file 
## 10 circleci-config.yml file 
## # … with 46 more rows
```
…
