Wrangling data with dplyr
…
---

## `select()`

```r
select(<DATA>, <VARIABLES>)
```

```r
diamonds
```

```
## # A tibble: 53,940 x 10
*##    carat cut     color clarity depth table price     x     y
##    <dbl> <ord>   <ord> <ord>   <dbl> <dbl> <int> <dbl> <dbl>
##  1 0.23  Ideal   E     SI2      61.5    55   326  3.95  3.98
##  2 0.21  Premium E     SI1      59.8    61   326  3.89  3.84
##  3 0.23  Good    E     VS1      56.9    65   327  4.05  4.07
##  4 0.290 Premium I     VS2      62.4    58   334  4.2   4.23
##  5 0.31  Good    J     SI2      63.3    58   335  4.34  4.35
##  6 0.24  Very G… J     VVS2     62.8    57   336  3.94  3.96
##  7 0.24  Very G… I     VVS1     62.3    57   336  3.95  3.98
##  8 0.26  Very G… H     SI1      61.9    55   337  4.07  4.11
##  9 0.22  Fair    E     VS2      65.1    61   337  3.87  3.78
## 10 0.23  Very G… H     VS1      59.4    61   338  4     4.05
*## # … with 53,930 more rows, and 1 more variable: z <dbl>
```
…
```r
*select(diamonds, carat, cut, color, clarity)
```

---

## `select()`

```r
select(diamonds, carat, cut, color, clarity)
```

```
## # A tibble: 53,940 x 4
*##    carat cut       color clarity
##    <dbl> <ord>     <ord> <ord>  
##  1 0.23  Ideal     E     SI2    
##  2 0.21  Premium   E     SI1    
##  3 0.23  Good      E     VS1    
##  4 0.290 Premium   I     VS2    
##  5 0.31  Good      J     SI2    
##  6 0.24  Very Good J     VVS2   
##  7 0.24  Very Good I     VVS1   
##  8 0.26  Very Good H     SI1    
##  9 0.22  Fair      E     VS2    
## 10 0.23  Very Good H     VS1    
## # … with 53,930 more rows
```
…
?select_helpers
```

---

## gapminder

```r
library(gapminder)
gapminder
```

```
## # A tibble: 1,704 x 6
##    country     continent  year lifeExp      pop gdpPercap
##    <fct>       <fct>     <int>   <dbl>    <int>     <dbl>
##  1 Afghanistan Asia       1952    28.8  8425333      779.
##  2 Afghanistan Asia       1957    30.3  9240934      821.
##  3 Afghanistan Asia       1962    32.0 10267083      853.
##  4 Afghanistan Asia       1967    34.0 11537966      836.
##  5 Afghanistan Asia       1972    36.1 13079460      740.
##  6 Afghanistan Asia       1977    38.4 14880372      786.
##  7 Afghanistan Asia       1982    39.9 12881816      978.
##  8 Afghanistan Asia       1987    40.8 13867957      852.
##  9 Afghanistan Asia       1992    41.7 16317921      649.
## 10 Afghanistan Asia       1997    41.8 22227415      635.
## # … with 1,694 more rows
```
…
```r
select(gapminder, year, lifeExp)
```

---

## Your Turn 1

```r
select(gapminder, pop)
```

```
## # A tibble: 1,704 x 1
##         pop
##       <int>
##  1  8425333
##  2  9240934
##  3 10267083
##  4 11537966
##  5 13079460
##  6 14880372
##  7 12881816
##  8 13867957
##  9 16317921
## 10 22227415
## # … with 1,694 more rows
```
…
select(gapminder, ends_with("t"))
```

---

## Show of Hands

#### Which of these is NOT a way to select the `country` and `continent` columns together?

```r
select(gapminder, ends_with("t"))
```

```
## # A tibble: 1,704 x 1
*##    continent
##    <fct>    
##  1 Asia     
##  2 Asia     
##  3 Asia     
##  4 Asia     
##  5 Asia     
##  6 Asia     
##  7 Asia     
##  8 Asia     
##  9 Asia     
## 10 Asia     
## # … with 1,694 more rows
```
…
```r
mutate(diamonds, log_price = log(price), log_pricesq = log_price^2)
```

---

## `mutate()`

```r
mutate(diamonds, log_price = log(price), log_pricesq = log_price^2)
```

```
## # A tibble: 53,940 x 12
##    carat cut     color clarity depth table price     x     y
##    <dbl> <ord>   <ord> <ord>   <dbl> <dbl> <int> <dbl> <dbl>
##  1 0.23  Ideal   E     SI2      61.5    55   326  3.95  3.98
##  2 0.21  Premium E     SI1      59.8    61   326  3.89  3.84
##  3 0.23  Good    E     VS1      56.9    65   327  4.05  4.07
##  4 0.290 Premium I     VS2      62.4    58   334  4.2   4.23
##  5 0.31  Good    J     SI2      63.3    58   335  4.34  4.35
##  6 0.24  Very G… J     VVS2     62.8    57   336  3.94  3.96
##  7 0.24  Very G… I     VVS1     62.3    57   336  3.95  3.98
##  8 0.26  Very G… H     SI1      61.9    55   337  4.07  4.11
##  9 0.22  Fair    E     VS2      65.1    61   337  3.87  3.78
## 10 0.23  Very G… H     VS1      59.4    61   338  4     4.05
## # … with 53,930 more rows, and 3 more variables: z <dbl>,
…
```r
arrange(<DATA>, <SORTING VARIABLE>)
```

---

## `arrange()`

```r
arrange(diamonds, price)
```

```
## # A tibble: 53,940 x 10
##    carat cut     color clarity depth table price     x     y
##    <dbl> <ord>   <ord> <ord>   <dbl> <dbl> <int> <dbl> <dbl>
##  1 0.23  Ideal   E     SI2      61.5    55   326  3.95  3.98
##  2 0.21  Premium E     SI1      59.8    61   326  3.89  3.84
##  3 0.23  Good    E     VS1      56.9    65   327  4.05  4.07
##  4 0.290 Premium I     VS2      62.4    58   334  4.2   4.23
##  5 0.31  Good    J     SI2      63.3    58   335  4.34  4.35
##  6 0.24  Very G… J     VVS2     62.8    57   336  3.94  3.96
##  7 0.24  Very G… I     VVS1     62.3    57   336  3.95  3.98
##  8 0.26  Very G… H     SI1      61.9    55   337  4.07  4.11
##  9 0.22  Fair    E     VS2      65.1    61   337  3.87  3.78
## 10 0.23  Very G… H     VS1      59.4    61   338  4     4.05
## # … with 53,930 more rows, and 1 more variable: z <dbl>
```

---

## `arrange()`

```r
arrange(diamonds, cut, price)
```

```
## # A tibble: 53,940 x 10
##    carat cut   color clarity depth table price     x     y
##    <dbl> <ord> <ord> <ord>   <dbl> <dbl> <int> <dbl> <dbl>
##  1  0.22 Fair  E     VS2      65.1    61   337  3.87  3.78
##  2  0.25 Fair  E     VS1      55.2    64   361  4.21  4.23
##  3  0.23 Fair  G     VVS2     61.4    66   369  3.87  3.91
##  4  0.27 Fair  E     VS1      66.4    58   371  3.99  4.02
##  5  0.3  Fair  J     VS2      64.8    58   416  4.24  4.16
##  6  0.3  Fair  F     SI1      63.1    58   496  4.3   4.22
##  7  0.34 Fair  J     SI1      64.5    57   497  4.38  4.36
##  8  0.37 Fair  F     SI1      65.3    56   527  4.53  4.47
##  9  0.3  Fair  D     SI2      64.6    54   536  4.29  4.25
## 10  0.25 Fair  D     VS1      61.2    55   563  4.09  4.11
## # … with 53,930 more rows, and 1 more variable: z <dbl>
```

---

## `desc()`

```r
arrange(diamonds, cut, desc(price))
```

```
## # A tibble: 53,940 x 10
##    carat cut   color clarity depth table price     x     y
##    <dbl> <ord> <ord> <ord>   <dbl> <dbl> <int> <dbl> <dbl>
##  1  2.01 Fair  G     SI1      70.6    64 18574  7.43  6.64
##  2  2.02 Fair  H     VS2      64.5    57 18565  8     7.95
##  3  4.5  Fair  J     I1       65.8    58 18531 10.2  10.2 
##  4  2    Fair  G     VS2      67.6    58 18515  7.65  7.61
##  5  2.51 Fair  H     SI2      64.7    57 18308  8.44  8.5 
##  6  3.01 Fair  I     SI2      65.8    56 18242  8.99  8.94
##  7  3.01 Fair  I     SI2      65.8    56 18242  8.99  8.94
##  8  2.32 Fair  H     SI1      62      62 18026  8.47  8.31
##  9  5.01 Fair  J     I1       65.5    59 18018 10.7  10.5 
## 10  1.93 Fair  F     VS1      58.9    62 17995  8.17  7.97
## # … with 53,930 more rows, and 1 more variable: z <dbl>
```
…
## Arrange gapminder by `year`. Add `lifeExp` as a second (tie breaking) variable to arrange on. 

## Which country had the lowest life expectancy in 1952?

---

## Your turn 4

```r
arrange(gapminder, year, lifeExp)
```

```
## # A tibble: 1,704 x 6
##    country       continent  year lifeExp     pop gdpPercap
##    <fct>         <fct>     <int>   <dbl>   <int>     <dbl>
##  1 Afghanistan   Asia       1952    28.8 8425333      779.
##  2 Gambia        Africa     1952    30    284320      485.
##  3 Angola        Africa     1952    30.0 4232095     3521.
##  4 Sierra Leone  Africa     1952    30.3 2143249      880.
##  5 Mozambique    Africa     1952    31.3 6446316      469.
##  6 Burkina Faso  Africa     1952    32.0 4469979      543.
##  7 Guinea-Bissau Africa     1952    32.5  580653      300.
##  8 Yemen, Rep.   Asia       1952    32.5 4963829      782.
##  9 Somalia       Africa     1952    33.0 2526994     1136.
## 10 Guinea        Africa     1952    33.6 2664249      510.
## # … with 1,694 more rows
```
…
## Your turn 5

## Use `desc()` to find the country with the highest `gdpPercap`.

---

## Your turn 5

```r
arrange(gapminder, desc(gdpPercap))
```

```
## # A tibble: 1,704 x 6
##    country   continent  year lifeExp     pop gdpPercap
##    <fct>     <fct>     <int>   <dbl>   <int>     <dbl>
##  1 Kuwait    Asia       1957    58.0  212846   113523.
##  2 Kuwait    Asia       1972    67.7  841934   109348.
##  3 Kuwait    Asia       1952    55.6  160000   108382.
##  4 Kuwait    Asia       1962    60.5  358266    95458.
##  5 Kuwait    Asia       1967    64.6  575003    80895.
##  6 Kuwait    Asia       1977    69.3 1140357    59265.
##  7 Norway    Europe     2007    80.2 4627926    49357.
##  8 Kuwait    Asia       2007    77.6 2505559    47307.
##  9 Singapore Asia       2007    80.0 4553009    47143.
## 10 Norway    Europe     2002    79.0 4535591    44684.
## # … with 1,694 more rows
```
…
---

## Your turn 6

```r
gapminder %>% 
  filter(continent == "Oceania") %>% 
  select(country, year, lifeExp) %>% 
  arrange(desc(lifeExp))
```

```
## # A tibble: 24 x 3
##    country      year lifeExp
##    <fct>       <int>   <dbl>
##  1 Australia    2007    81.2
##  2 Australia    2002    80.4
##  3 New Zealand  2007    80.2
##  4 New Zealand  2002    79.1
##  5 Australia    1997    78.8
##  6 Australia    1992    77.6
##  7 New Zealand  1997    77.6
##  8 New Zealand  1992    76.3
##  9 Australia    1987    76.3
## 10 Australia    1982    74.7
## # … with 14 more rows
```
…
```r
diabetes <- read_csv("diabetes.csv")
diabetes %>% 
  mutate(bmi = (weight / height^2) * 703) %>% 
  select(id, glyhb, bmi) %>% 
  filter(bmi > 35)
```

```
*## # A tibble: 61 x 3
##       id glyhb   bmi
##    <dbl> <dbl> <dbl>
##  1  1001  4.44  37.4
##  2  1002  4.64  48.4
##  3  1022  5.78  35.8
##  4  1029  4.97  40.8
##  5  1253  4.67  36.0
##  6  1254 12.7   42.5
##  7  1280  5.10  38.3
##  8  1501  4.41  40.0
##  9  2753  5.57  35.3
## 10  2757  6.33  35.3
## # … with 51 more rows
```
…
---

## `group_by()`

```r
diamonds %>% 
  group_by(cut)
```

```
## # A tibble: 53,940 x 10
*## # Groups:   cut [5]
##    carat cut     color clarity depth table price     x     y
##    <dbl> <ord>   <ord> <ord>   <dbl> <dbl> <int> <dbl> <dbl>
##  1 0.23  Ideal   E     SI2      61.5    55   326  3.95  3.98
##  2 0.21  Premium E     SI1      59.8    61   326  3.89  3.84
##  3 0.23  Good    E     VS1      56.9    65   327  4.05  4.07
##  4 0.290 Premium I     VS2      62.4    58   334  4.2   4.23
##  5 0.31  Good    J     SI2      63.3    58   335  4.34  4.35
##  6 0.24  Very G… J     VVS2     62.8    57   336  3.94  3.96
##  7 0.24  Very G… I     VVS1     62.3    57   336  3.95  3.98
##  8 0.26  Very G… H     SI1      61.9    55   337  4.07  4.11
##  9 0.22  Fair    E     VS2      65.1    61   337  3.87  3.78
## 10 0.23  Very G… H     VS1      59.4    61   338  4     4.05
## # … with 53,930 more rows, and 1 more variable: z <dbl>
```
…
---

## `group_by()`

```r
diamonds %>% 
  group_by(cut) %>% 
  mutate(n = n(), mean_price = mean(price))
```

```
*## # A tibble: 53,940 x 12
*## # Groups:   cut [5]
##    carat cut     color clarity depth table price     x     y
##    <dbl> <ord>   <ord> <ord>   <dbl> <dbl> <int> <dbl> <dbl>
##  1 0.23  Ideal   E     SI2      61.5    55   326  3.95  3.98
##  2 0.21  Premium E     SI1      59.8    61   326  3.89  3.84
##  3 0.23  Good    E     VS1      56.9    65   327  4.05  4.07
##  4 0.290 Premium I     VS2      62.4    58   334  4.2   4.23
##  5 0.31  Good    J     SI2      63.3    58   335  4.34  4.35
##  6 0.24  Very G… J     VVS2     62.8    57   336  3.94  3.96
##  7 0.24  Very G… I     VVS1     62.3    57   336  3.95  3.98
##  8 0.26  Very G… H     SI1      61.9    55   337  4.07  4.11
##  9 0.22  Fair    E     VS2      65.1    61   337  3.87  3.78
## 10 0.23  Very G… H     VS1      59.4    61   338  4     4.05
## # … with 53,930 more rows, and 3 more variables: z <dbl>,
## #   n <int>, mean_price <dbl>
```
…
---

## Your turn 8

```r
gapminder %>% 
  filter(continent == "Europe") %>% 
  group_by(country) %>% 
  summarize(n = n(), min_le = min(lifeExp))
```

```
## # A tibble: 30 x 3
##    country                    n min_le
##    <fct>                  <int>  <dbl>
##  1 Albania                   12   55.2
##  2 Austria                   12   66.8
##  3 Belgium                   12   68  
##  4 Bosnia and Herzegovina    12   53.8
##  5 Bulgaria                  12   59.6
##  6 Croatia                   12   61.2
##  7 Czech Republic            12   66.9
##  8 Denmark                   12   70.8
##  9 Finland                   12   66.6
## 10 France                    12   67.4
## # … with 20 more rows
```
…
