Types, vectors, and functions in R
…
Your Turn 3

sim_data <- function() {
  tibble(
    x = rnorm(50), 
    sex = rep(c("male", "female"), times = 25),
    age = sample(25:50, size = 50, replace = TRUE)
  )
}

sim_data()

Your Turn 3

# A tibble: 50 × 3
        x sex      age
    <dbl> <chr>  <int>
 1 -1.19  male      42
 2  2.07  female    45
 3 -0.174 male      50
 4  0.420 female    36
 5 -1.18  male      47
 6  0.839 female    44
 7  0.240 male      25
 8 -0.392 female    25
 9  0.274 male      45
10 -0.251 female    30
# ℹ 40 more rows
…
Programming with the tidyverse

Pass the dots: ...

select_gapminder <- function(...) {
  gapminder |> 
    select(...) 
}

select_gapminder(pop, year)

Pass the dots: ...

# A tibble: 1,704 × 2
        pop  year
      <int> <int>
 1  8425333  1952
 2  9240934  1957
 3 10267083  1962
 4 11537966  1967
 5 13079460  1972
 6 14880372  1977
 7 12881816  1982
 8 13867957  1987
 9 16317921  1992
10 22227415  1997
# ℹ 1,694 more rows
…
