Tidying Data
…
who

Your Turn 3

who |>
  pivot_longer(
    names_to = "codes",
    values_to = "n",
    cols = 5:60
  ) |>
  select(country, year, codes, n)

Your Turn 3

# A tibble: 405,440 × 4
   country      year codes            n
   <chr>       <dbl> <chr>        <dbl>
 1 Afghanistan  1980 new_sp_m014     NA
 2 Afghanistan  1980 new_sp_m1524    NA
 3 Afghanistan  1980 new_sp_m2534    NA
 4 Afghanistan  1980 new_sp_m3544    NA
 5 Afghanistan  1980 new_sp_m4554    NA
 6 Afghanistan  1980 new_sp_m5564    NA
 7 Afghanistan  1980 new_sp_m65      NA
 8 Afghanistan  1980 new_sp_f014     NA
 9 Afghanistan  1980 new_sp_f1524    NA
10 Afghanistan  1980 new_sp_f2534    NA
# ℹ 405,430 more rows
…
Other neat tidyr tools

Uncounting frequency tables

lotr |>
  pivot_longer(
    names_to = "sex",
    values_to = "count",
    cols = c(female, male)
  ) |>
  uncount(count)

Other neat tidyr tools

# A tibble: 21,245 × 3
   film                       race  sex   
   <chr>                      <chr> <chr> 
 1 The Fellowship Of The Ring Elf   female
 2 The Fellowship Of The Ring Elf   female
 3 The Fellowship Of The Ring Elf   female
 4 The Fellowship Of The Ring Elf   female
 5 The Fellowship Of The Ring Elf   female
 6 The Fellowship Of The Ring Elf   female
 7 The Fellowship Of The Ring Elf   female
 8 The Fellowship Of The Ring Elf   female
 9 The Fellowship Of The Ring Elf   female
10 The Fellowship Of The Ring Elf   female
# ℹ 21,235 more rows
…
