Efficient coding patterns in R and Python
…
Arrow

open_dataset("fd_calls") |>
  filter(year == 2015) |>
  mutate(log_delay = log(Delay)) |>
  group_by(Neighborhood) |>
  summarise(log_delay = mean(log_delay)) |>
  collect()

Arrow

# A tibble: 43 × 2
   Neighborhood       log_delay
   <chr>                  <dbl>
 1 Haight Ashbury         0.987
 2 Mission                1.08 
 3 Nob Hill               1.10 
 4 Tenderloin             1.08 
 5 Japantown              1.08 
 6 West of Twin Peaks     1.09 
 7 South of Market        1.10 
 8 Sunset/Parkside        1.14 
 9 Pacific Heights        1.11 
10 North Beach            1.11 
# ℹ 33 more rows
…
