Reading and Writing Data
…
---
class: middle

<img src="new_data_alert_diabetes.png" width="100%" height="100%" style="display: block; margin: auto;" />

---

```r
diabetes
```

```
## # A tibble: 403 x 19
##       id  chol stab.glu   hdl ratio glyhb location   age
##    <dbl> <dbl>    <dbl> <dbl> <dbl> <dbl> <chr>    <dbl>
##  1  1000   203       82    56  3.60  4.31 Bucking…    46
##  2  1001   165       97    24  6.90  4.44 Bucking…    29
##  3  1002   228       92    37  6.20  4.64 Bucking…    58
##  4  1003    78       93    12  6.5   4.63 Bucking…    67
##  5  1005   249       90    28  8.90  7.72 Bucking…    64
##  6  1008   248       94    69  3.60  4.81 Bucking…    34
##  7  1011   195       92    41  4.80  4.84 Bucking…    30
##  8  1015   227       75    44  5.20  3.94 Bucking…    37
##  9  1016   177       87    49  3.60  4.84 Bucking…    45
## 10  1022   263       89    40  6.60  5.78 Bucking…    55
## # … with 393 more rows, and 11 more variables:
## #   gender <chr>, height <dbl>, weight <dbl>, frame <chr>,
## #   bp.1s <dbl>, bp.1d <dbl>, …
```
…
```r
library(haven)
diabetes <- read_sas("diabetes.sas7bdat")
```

---

## Your Turn 3

```r
diabetes
```

```
## # A tibble: 403 x 19
##       id  chol stab_glu   hdl ratio glyhb location   age
##    <dbl> <dbl>    <dbl> <dbl> <dbl> <dbl> <chr>    <dbl>
##  1  1000   203       82    56  3.60  4.31 Bucking…    46
##  2  1001   165       97    24  6.90  4.44 Bucking…    29
##  3  1002   228       92    37  6.20  4.64 Bucking…    58
##  4  1003    78       93    12  6.5   4.63 Bucking…    67
##  5  1005   249       90    28  8.90  7.72 Bucking…    64
##  6  1008   248       94    69  3.60  4.81 Bucking…    34
##  7  1011   195       92    41  4.80  4.84 Bucking…    30
##  8  1015   227       75    44  5.20  3.94 Bucking…    37
##  9  1016   177       87    49  3.60  4.84 Bucking…    45
## 10  1022   263       89    40  6.60  5.78 Bucking…    55
## # … with 393 more rows, and 11 more variables:
## #   gender <chr>, height <dbl>, weight <dbl>, frame <chr>,
## #   bp_1s <dbl>, bp_1d <dbl>, …
```
…
