Modeling in R and Tidying Results
…
---

## Modeling in R

```r
lm(price ~ carat, data = diamonds) %>% 
  augment()
```

```
*## # A tibble: 53,940 x 9
*##    price carat .fitted .se.fit .resid    .hat .sigma .cooksd
##    <int> <dbl>   <dbl>   <dbl>  <dbl>   <dbl>  <dbl>   <dbl>
##  1   326 0.23  -472.     10.4    798. 4.52e-5  1549. 6.00e-6
##  2   326 0.21  -628.     10.6    954. 4.71e-5  1549. 8.92e-6
##  3   327 0.23  -472.     10.4    799. 4.52e-5  1549. 6.02e-6
##  4   334 0.290   -7.00    9.77   341. 3.98e-5  1549. 9.66e-7
##  5   335 0.31   148.      9.57   187. 3.82e-5  1549. 2.78e-7
##  6   336 0.24  -395.     10.3    731. 4.42e-5  1549. 4.93e-6
##  7   336 0.24  -395.     10.3    731. 4.42e-5  1549. 4.93e-6
##  8   337 0.26  -240.     10.1    577. 4.24e-5  1549. 2.94e-6
##  9   337 0.22  -550.     10.5    887. 4.61e-5  1549. 7.56e-6
## 10   338 0.23  -472.     10.4    810. 4.52e-5  1549. 6.18e-6
## # … with 53,930 more rows, and 1 more variable:
## #   .std.resid <dbl>
```
…
