Designing ggplots
…
class: inverse, center

## How do we reduce mental burden in our plots?
## **simplify aesthetics and highlight**

---

```r
emperors <- read_csv(file.path("data", "emperors.csv"))

emperors
```

```
## # A tibble: 68 x 16
##    index name  name_full birth      death      birth_cty
##    <dbl> <chr> <chr>     <date>     <date>     <chr>    
##  1     1 Augu… IMPERATO… 0062-09-23 0014-08-19 Rome     
##  2     2 Tibe… TIBERIVS… 0041-11-16 0037-03-16 Rome     
##  3     3 Cali… GAIVS IV… 0012-08-31 0041-01-24 Antitum  
##  4     4 Clau… TIBERIVS… 0009-08-01 0054-10-13 Lugdunum 
##  5     5 Nero  NERO CLA… 0037-12-15 0068-06-09 Antitum  
##  6     6 Galba SERVIVS … 0002-12-24 0069-01-15 Terracina
##  7     7 Otho  MARCVS S… 0032-04-28 0069-04-16 Terentin…
##  8     8 Vite… AVLVS VI… 0015-09-24 0069-12-20 Rome     
##  9     9 Vesp… TITVS FL… 0009-11-17 0079-06-24 Falacrine
## 10    10 Titus TITVS FL… 0039-12-30 0081-09-13 Rome     
## # … with 58 more rows, and 10 more variables:
## #   birth_prv <chr>, rise <chr>, reign_start <date>,
## #   reign_end <date>, cause <chr>, killer <chr>, …
```
…
class: inverse, center

## How do we reduce mental burden in our plots?
## ~~simplify aesthetics and highlight~~
## **design figures without legends**

---

```r
library(gapminder)
gapminder
```

```
## # A tibble: 1,704 x 6
##    country     continent  year lifeExp      pop gdpPercap
##    <fct>       <fct>     <int>   <dbl>    <int>     <dbl>
##  1 Afghanistan Asia       1952    28.8  8425333      779.
##  2 Afghanistan Asia       1957    30.3  9240934      821.
##  3 Afghanistan Asia       1962    32.0 10267083      853.
##  4 Afghanistan Asia       1967    34.0 11537966      836.
##  5 Afghanistan Asia       1972    36.1 13079460      740.
##  6 Afghanistan Asia       1977    38.4 14880372      786.
##  7 Afghanistan Asia       1982    39.9 12881816      978.
##  8 Afghanistan Asia       1987    40.8 13867957      852.
##  9 Afghanistan Asia       1992    41.7 16317921      649.
## 10 Afghanistan Asia       1997    41.8 22227415      635.
## # … with 1,694 more rows
```
…
