Types, vectors, and functions in R
…
sim_data()
```

---

## Your Turn 3

```
## # A tibble: 50 x 3
##          x sex      age
##      <dbl> <chr>  <int>
##  1  0.0202 male      34
##  2 -1.10   female    42
##  3  0.200  male      40
##  4  0.357  female    40
##  5 -0.0356 male      27
##  6 -0.248  female    44
##  7  0.233  male      29
##  8 -0.760  female    34
##  9 -0.0736 male      50
## 10  1.06   female    46
## # … with 40 more rows
```
…
```r
select_gapminder <- function(...) {
  gapminder %>% 
    select(...)
}

*select_gapminder(pop, year)
```

---

# Pass the dots: `...`

```
## # A tibble: 1,704 x 2
##         pop  year
##       <int> <int>
##  1  8425333  1952
##  2  9240934  1957
##  3 10267083  1962
##  4 11537966  1967
##  5 13079460  1972
##  6 14880372  1977
##  7 12881816  1982
##  8 13867957  1987
##  9 16317921  1992
## 10 22227415  1997
## # … with 1,694 more rows
```
…
